…
```r
narrabay_data <- read_csv("narrabay_buoy_1517.csv")
```


And now we can take a look at our data frame


```r
narrabay_data
```

```
## # A tibble: 236,096 x 5
##    Location               Time                     Chl    pH  Temp
##    <chr>                  <chr>                  <dbl> <dbl> <dbl>
##  1 Phillipsdale (bottom)  12/31/2017 11:45:00 PM    NA -7999 -7999
##  2 Phillipsdale (surface) 12/31/2017 11:45:00 PM -7999 -7999 -7999
##  3 Phillipsdale (bottom)  12/31/2017 11:30:00 PM    NA -7999 -7999
##  4 Phillipsdale (surface) 12/31/2017 11:30:00 PM -7999 -7999 -7999
##  5 Phillipsdale (bottom)  12/31/2017 11:15:00 PM    NA -7999 -7999
##  6 Phillipsdale (surface) 12/31/2017 11:15:00 PM -7999 -7999 -7999
##  7 Phillipsdale (bottom)  12/31/2017 11:00:00 PM    NA -7999 -7999
##  8 Phillipsdale (surface) 12/31/2017 11:00:00 PM -7999 -7999 -7999
##  9 Phillipsdale (bottom)  12/31/2017 10:45:00 PM    NA -7999 -7999
## 10 Phillipsdale (surface) 12/31/2017 10:45:00 PM -7999 -7999 -7999
## # ... with 236,086 more rows
```
…
```
## # A tibble: 105,386 x 6
##    location     layer   date         chl    ph  temp
##    <chr>        <chr>   <date>     <dbl> <dbl> <dbl>
##  1 Phillipsdale surface 2017-12-27  2.80  7.44 1.13 
##  2 Phillipsdale surface 2017-12-27  1.90  7.45 0.790
##  3 Phillipsdale surface 2017-12-27  2.10  7.43 1.23 
##  4 Phillipsdale surface 2017-12-27  2.20  7.42 0.750
##  5 Phillipsdale surface 2017-12-27  2.20  7.46 1.12 
##  6 Phillipsdale surface 2017-12-27  2.00  7.44 1.50 
##  7 Phillipsdale surface 2017-12-27  2.50  7.43 1.55 
##  8 Phillipsdale surface 2017-12-27  2.20  7.40 1.83 
##  9 Phillipsdale surface 2017-12-27  2.10  7.36 0.890
## 10 Phillipsdale surface 2017-12-27  2.10  7.37 0.600
## # ... with 105,376 more rows
```
